﻿{
  "rules": {
    "accountNumber": {
      "type": "pattern",
      "rule": {
        "pattern": "\\d+ \\d+ \\d+"
      }
    },
    "transaction": {
      "type": "pattern",
      "rule": {
        "pattern": "^(\\d+[- /.]\\d+[- /.]\\d+) (.*?) ([+\\-$]*\\d+[.,]+\\d+[.,]*\\d+)$"
      }
    }
  }
}
