﻿{
  "rules": {
    "bankAddress": {
      "type": "block",
      "rule": {
        "position": "1",
        "skipLines": "0",
        "takeLines": "*"
      }
    },
    "checkingAccountNumber": {
      "type": "expression",
      "rule": {
        "hint": "Chase Better Banking Checking",
        "pattern": "<accountNumber>"
      }
    },
    "savingAccountNumber": {
      "type": "expression",
      "rule": {
        "hint": "Chase Money Market Savings",
        "pattern": "<accountNumber>"
      }
    },
    "customerAddress": {
      "type": "block",
      "rule": {
        "position": "2",
        "skipLines": "1",
        "takeLines": "*"
      }
    },
    "customerName": {
      "type": "block",
      "rule": {
        "position": "2",
        "skipLines": "0",
        "takeLines": "1"
      }
    },
    "statementMonth": {
      "type": "expression",
      "rule": {
        "hint": "through",
        "pattern": "<longDate2>"
      }
    },
    "beginningBalance": {
      "type": "expression",
      "rule": {
        "hint": "Beginning Balance",
        "pattern": "<amount>"
      }
    },
    "depositBalance": {
      "type": "expression",
      "rule": {
        "hint": "Deposits and Additions",
        "pattern": "<amount>"
      }
    },
    "atmAndDebitCardSubtractions": {
      "type": "expression",
      "rule": {
        "hint": "ATM & Debit Card Withdrawals",
        "pattern": "<amount>"
      }
    },
    "electronicWithdrawals": {
      "type": "expression",
      "rule": {
        "hint": "Electronic Withdrawals",
        "pattern": "<amount>"
      }
    },
    "otherWithdrawals": {
      "type": "expression",
      "rule": {
        "hint": "Fees and Other Withdrawals",
        "pattern": "<amount>"
      }
    },
    "endingBalance": {
      "type": "expression",
      "rule": {
        "hint": "Ending Balance",
        "pattern": "<amount>"
      }
    },
    "allTransactions": {
      "type": "line",
      "rule": {
        "pattern": "<transaction>"
      }
    },
    "depositTransactions": {
      "type": "range",
      "rule": {
        "fromHint": "DEPOSITS AND ADDITIONS",
        "toHint": "Total Deposits and Additions",
        "pattern": "<transaction>"
      }
    },
    "atmAndDebitCardTransactions": {
      "type": "range",
      "rule": {
        "fromHint": "ATM & DEBIT CARD WITHDRAWALS",
        "toHint": "Total ATM & Debit Card Withdrawals",
        "pattern": "<transaction>"
      }
    },
    "electronicWithdrawalTransactions": {
      "type": "range",
      "rule": {
        "fromHint": "ELECTRONIC WITHDRAWALS",
        "toHint": "Total Electronic Withdrawals",
        "pattern": "<transaction>"
      }
    },
    "feesAndOtherWithdrawalTransactions": {
      "type": "range",
      "rule": {
        "fromHint": "FEES AND OTHER WITHDRAWALS",
        "toHint": "Total Fees & Other Withdrawals",
        "pattern": "<transaction>"
      }
    }
  }
}